{
  "name": "Dienstemanager",
  "version": "4.8.3",
  "description": "Dienstemanager",
  "license": "GPL-3.0-only",
  "repository": {
    "type": "git",
    "url": "https://bitbucket.org/geowerkstatt-hamburg/dienstemanager.git"
  },
  "scripts": {
    "start": "set NODE_ENV=dev && set DEBUG_HIDE_DATE=1 && set DEBUG_COLORS=10 && set DEBUG=DM:* && nodemon server.js",
    "prod": "set NODE_ENV=prod && set DEBUG_COLORS=10 && set DEBUG=DM:* && node server.js"
  },
  "dependencies": {
    "archiver": "^3.1.1",
    "axios": "^0.19.0",
    "body-parser": "^1.19.0",
    "debug": "^4.3.1",
    "express": "^4.17.1",
    "express-handlebars": "^3.1.0",
    "express-promise-router": "^3.0.3",
    "file-saver": "^2.0.5",
    "fs": "0.0.1-security",
    "htmlparser2": "^3.10.1",
    "https": "^1.0.0",
    "moment": "^2.29.1",
    "node-schedule": "^1.3.3",
    "nodemailer": "^4.7.0",
    "pg-promise": "^10.9.4",
    "replacestream": "^4.0.3",
    "request": "^2.88.2",
    "socket.io": "^2.4.1",
    "supports-color": "^7.2.0",
    "tunnel": "0.0.6",
    "underscore": "^1.12.0",
    "uuid": "^8.3.2",
    "webdav": "^3.6.2",
    "xml-formatter": "^2.4.0",
    "xml2js": "^0.4.23",
    "xmldom": "^0.1.31",
    "xpath": "0.0.27"
  }
}
